{
  "page": {
    "pageNumber": 2,
    "pageSize": 50,
    "numberOfElements": 21,
    "totalElements": 121,
    "totalPages": 3,
    "firstPage": false,
    "lastPage": true
  },
  "sort": {
    "clauses": []
  },
  "characters": [
    {
      "uid": "CHMA0000021339",
      "name": "John F. Kennedy",
      "gender": "M",
      "yearOfBirth": 1917,
      "monthOfBirth": 5,
      "dayOfBirth": 29,
      "placeOfBirth": null,
      "yearOfDeath": 1963,
      "monthOfDeath": 11,
      "dayOfDeath": 22,
      "placeOfDeath": "Dallas, Texas",
      "height": null,
      "weight": null,
      "deceased": true,
      "bloodType": null,
      "maritalStatus": "MARRIED",
      "serialNumber": null,
      "hologramActivationDate": null,
      "hologramStatus": null,
      "hologramDateStatus": null,
      "hologram": false,
      "fictionalCharacter": false,
      "mirror": false,
      "alternateReality": false
    },
    {
      "uid": "CHMA0000063049",
      "name": "Alfredo Pedillo Jose",
      "gender": null,
      "yearOfBirth": null,
      "monthOfBirth": null,
      "dayOfBirth": null,
      "placeOfBirth": null,
      "yearOfDeath": null,
      "monthOfDeath": null,
      "dayOfDeath": null,
      "placeOfDeath": null,
      "height": null,
      "weight": null,
      "deceased": null,
      "bloodType": null,
      "maritalStatus": null,
      "serialNumber": null,
      "hologramActivationDate": null,
      "hologramStatus": null,
      "hologramDateStatus": null,
      "hologram": false,
      "fictionalCharacter": false,
      "mirror": false,
      "alternateReality": false
    },
    {
      "uid": "CHMA0000039017",
      "name": "Valeda Innis",
      "gender": "F",
      "yearOfBirth": null,
      "monthOfBirth": null,
      "dayOfBirth": null,
      "placeOfBirth": null,
      "yearOfDeath": null,
      "monthOfDeath": null,
      "dayOfDeath": null,
      "placeOfDeath": null,
      "height": null,
      "weight": null,
      "deceased": null,
      "bloodType": null,
      "maritalStatus": null,
      "serialNumber": null,
      "hologramActivationDate": null,
      "hologramStatus": null,
      "hologramDateStatus": null,
      "hologram": false,
      "fictionalCharacter": false,
      "mirror": false,
      "alternateReality": false
    },
    {
      "uid": "CHMA0000061751",
      "name": "Benedict de Spinoza",
      "gender": null,
      "yearOfBirth": null,
      "monthOfBirth": null,
      "dayOfBirth": null,
      "placeOfBirth": null,
      "yearOfDeath": null,
      "monthOfDeath": null,
      "dayOfDeath": null,
      "placeOfDeath": null,
      "height": null,
      "weight": null,
      "deceased": null,
      "bloodType": null,
      "maritalStatus": null,
      "serialNumber": null,
      "hologramActivationDate": null,
      "hologramStatus": null,
      "hologramDateStatus": null,
      "hologram": false,
      "fictionalCharacter": false,
      "mirror": false,
      "alternateReality": false
    },
    {
      "uid": "CHMA0000134966",
      "name": "Eddie Newsom",
      "gender": null,
      "yearOfBirth": null,
      "monthOfBirth": null,
      "dayOfBirth": null,
      "placeOfBirth": null,
      "yearOfDeath": null,
      "monthOfDeath": null,
      "dayOfDeath": null,
      "placeOfDeath": null,
      "height": null,
      "weight": null,
      "deceased": null,
      "bloodType": null,
      "maritalStatus": null,
      "serialNumber": null,
      "hologramActivationDate": null,
      "hologramStatus": null,
      "hologramDateStatus": null,
      "hologram": false,
      "fictionalCharacter": false,
      "mirror": false,
      "alternateReality": false
    },
    {
      "uid": "CHMA0000007735",
      "name": "Hedril",
      "gender": "F",
      "yearOfBirth": null,
      "monthOfBirth": null,
      "dayOfBirth": null,
      "placeOfBirth": null,
      "yearOfDeath": null,
      "monthOfDeath": null,
      "dayOfDeath": null,
      "placeOfDeath": null,
      "height": null,
      "weight": null,
      "deceased": null,
      "bloodType": null,
      "maritalStatus": null,
      "serialNumber": null,
      "hologramActivationDate": null,
      "hologramStatus": null,
      "hologramDateStatus": null,
      "hologram": false,
      "fictionalCharacter": false,
      "mirror": false,
      "alternateReality": false
    },
    {
      "uid": "CHMA0000045791",
      "name": "Tedran",
      "gender": "M",
      "yearOfBirth": null,
      "monthOfBirth": null,
      "dayOfBirth": null,
      "placeOfBirth": null,
      "yearOfDeath": 2374,
      "monthOfDeath": null,
      "dayOfDeath": null,
      "placeOfDeath": null,
      "height": null,
      "weight": null,
      "deceased": true,
      "bloodType": null,
      "maritalStatus": null,
      "serialNumber": null,
      "hologramActivationDate": null,
      "hologramStatus": null,
      "hologramDateStatus": null,
      "hologram": false,
      "fictionalCharacter": false,
      "mirror": false,
      "alternateReality": false
    },
    {
      "uid": "CHMA0000069278",
      "name": "G. Edelman",
      "gender": null,
      "yearOfBirth": null,
      "monthOfBirth": null,
      "dayOfBirth": null,
      "placeOfBirth": null,
      "yearOfDeath": null,
      "monthOfDeath": null,
      "dayOfDeath": null,
      "placeOfDeath": null,
      "height": null,
      "weight": null,
      "deceased": null,
      "bloodType": null,
      "maritalStatus": null,
      "serialNumber": null,
      "hologramActivationDate": null,
      "hologramStatus": null,
      "hologramDateStatus": null,
      "hologram": false,
      "fictionalCharacter": false,
      "mirror": false,
      "alternateReality": false
    },
    {
      "uid": "CHMA0000170985",
      "name": "Martin Jedlicka",
      "gender": null,
      "yearOfBirth": null,
      "monthOfBirth": null,
      "dayOfBirth": null,
      "placeOfBirth": null,
      "yearOfDeath": null,
      "monthOfDeath": null,
      "dayOfDeath": null,
      "placeOfDeath": null,
      "height": null,
      "weight": null,
      "deceased": null,
      "bloodType": null,
      "maritalStatus": null,
      "serialNumber": null,
      "hologramActivationDate": null,
      "hologramStatus": null,
      "hologramDateStatus": null,
      "hologram": false,
      "fictionalCharacter": false,
      "mirror": false,
      "alternateReality": false
    },
    {
      "uid": "CHMA0000040785",
      "name": "Edward Hagler",
      "gender": "M",
      "yearOfBirth": null,
      "monthOfBirth": null,
      "dayOfBirth": null,
      "placeOfBirth": null,
      "yearOfDeath": 2369,
      "monthOfDeath": null,
      "dayOfDeath": null,
      "placeOfDeath": null,
      "height": null,
      "weight": null,
      "deceased": true,
      "bloodType": null,
      "maritalStatus": null,
      "serialNumber": null,
      "hologramActivationDate": null,
      "hologramStatus": null,
      "hologramDateStatus": null,
      "hologram": false,
      "fictionalCharacter": false,
      "mirror": false,
      "alternateReality": false
    },
    {
      "uid": "CHMA0000016891",
      "name": "Medusan",
      "gender": null,
      "yearOfBirth": null,
      "monthOfBirth": null,
      "dayOfBirth": null,
      "placeOfBirth": null,
      "yearOfDeath": null,
      "monthOfDeath": null,
      "dayOfDeath": null,
      "placeOfDeath": null,
      "height": null,
      "weight": null,
      "deceased": null,
      "bloodType": null,
      "maritalStatus": null,
      "serialNumber": null,
      "hologramActivationDate": null,
      "hologramStatus": null,
      "hologramDateStatus": null,
      "hologram": false,
      "fictionalCharacter": false,
      "mirror": false,
      "alternateReality": false
    },
    {
      "uid": "CHMA0000031694",
      "name": "Eddy",
      "gender": null,
      "yearOfBirth": null,
      "monthOfBirth": null,
      "dayOfBirth": null,
      "placeOfBirth": null,
      "yearOfDeath": null,
      "monthOfDeath": null,
      "dayOfDeath": null,
      "placeOfDeath": null,
      "height": null,
      "weight": null,
      "deceased": null,
      "bloodType": null,
      "maritalStatus": null,
      "serialNumber": null,
      "hologramActivationDate": null,
      "hologramStatus": null,
      "hologramDateStatus": null,
      "hologram": false,
      "fictionalCharacter": false,
      "mirror": false,
      "alternateReality": false
    },
    {
      "uid": "CHMA0000069619",
      "name": "Andrew Reeder",
      "gender": null,
      "yearOfBirth": null,
      "monthOfBirth": null,
      "dayOfBirth": null,
      "placeOfBirth": null,
      "yearOfDeath": null,
      "monthOfDeath": null,
      "dayOfDeath": null,
      "placeOfDeath": null,
      "height": null,
      "weight": null,
      "deceased": null,
      "bloodType": null,
      "maritalStatus": null,
      "serialNumber": null,
      "hologramActivationDate": null,
      "hologramStatus": null,
      "hologramDateStatus": null,
      "hologram": false,
      "fictionalCharacter": false,
      "mirror": false,
      "alternateReality": false
    },
    {
      "uid": "CHMA0000211352",
      "name": "Tweedledum and Tweedledee",
      "gender": null,
      "yearOfBirth": null,
      "monthOfBirth": null,
      "dayOfBirth": null,
      "placeOfBirth": null,
      "yearOfDeath": null,
      "monthOfDeath": null,
      "dayOfDeath": null,
      "placeOfDeath": null,
      "height": null,
      "weight": null,
      "deceased": null,
      "bloodType": null,
      "maritalStatus": null,
      "serialNumber": null,
      "hologramActivationDate": null,
      "hologramStatus": null,
      "hologramDateStatus": null,
      "hologram": false,
      "fictionalCharacter": true,
      "mirror": false,
      "alternateReality": false
    },
    {
      "uid": "CHMA0000037369",
      "name": "Leda",
      "gender": "F",
      "yearOfBirth": null,
      "monthOfBirth": null,
      "dayOfBirth": null,
      "placeOfBirth": null,
      "yearOfDeath": null,
      "monthOfDeath": null,
      "dayOfDeath": null,
      "placeOfDeath": null,
      "height": null,
      "weight": null,
      "deceased": null,
      "bloodType": null,
      "maritalStatus": null,
      "serialNumber": null,
      "hologramActivationDate": null,
      "hologramStatus": null,
      "hologramDateStatus": null,
      "hologram": false,
      "fictionalCharacter": false,
      "mirror": false,
      "alternateReality": false
    },
    {
      "uid": "CHMA0000171020",
      "name": "Ed Hoffmeister",
      "gender": null,
      "yearOfBirth": null,
      "monthOfBirth": null,
      "dayOfBirth": null,
      "placeOfBirth": null,
      "yearOfDeath": null,
      "monthOfDeath": null,
      "dayOfDeath": null,
      "placeOfDeath": null,
      "height": null,
      "weight": null,
      "deceased": null,
      "bloodType": null,
      "maritalStatus": null,
      "serialNumber": null,
      "hologramActivationDate": null,
      "hologramStatus": null,
      "hologramDateStatus": null,
      "hologram": false,
      "fictionalCharacter": false,
      "mirror": false,
      "alternateReality": false
    },
    {
      "uid": "CHMA0000141387",
      "name": "Edgar Mitchell",
      "gender": null,
      "yearOfBirth": null,
      "monthOfBirth": null,
      "dayOfBirth": null,
      "placeOfBirth": null,
      "yearOfDeath": null,
      "monthOfDeath": null,
      "dayOfDeath": null,
      "placeOfDeath": null,
      "height": null,
      "weight": null,
      "deceased": null,
      "bloodType": null,
      "maritalStatus": null,
      "serialNumber": null,
      "hologramActivationDate": null,
      "hologramStatus": null,
      "hologramDateStatus": null,
      "hologram": false,
      "fictionalCharacter": false,
      "mirror": false,
      "alternateReality": false
    },
    {
      "uid": "CHMA0000024130",
      "name": "Sam Freedle",
      "gender": null,
      "yearOfBirth": null,
      "monthOfBirth": null,
      "dayOfBirth": null,
      "placeOfBirth": null,
      "yearOfDeath": null,
      "monthOfDeath": null,
      "dayOfDeath": null,
      "placeOfDeath": null,
      "height": null,
      "weight": null,
      "deceased": null,
      "bloodType": null,
      "maritalStatus": null,
      "serialNumber": null,
      "hologramActivationDate": null,
      "hologramStatus": null,
      "hologramDateStatus": null,
      "hologram": true,
      "fictionalCharacter": false,
      "mirror": false,
      "alternateReality": false
    },
    {
      "uid": "CHMA0000001828",
      "name": "Madred",
      "gender": "M",
      "yearOfBirth": null,
      "monthOfBirth": null,
      "dayOfBirth": null,
      "placeOfBirth": null,
      "yearOfDeath": null,
      "monthOfDeath": null,
      "dayOfDeath": null,
      "placeOfDeath": null,
      "height": null,
      "weight": null,
      "deceased": null,
      "bloodType": null,
      "maritalStatus": null,
      "serialNumber": null,
      "hologramActivationDate": null,
      "hologramStatus": null,
      "hologramDateStatus": null,
      "hologram": false,
      "fictionalCharacter": false,
      "mirror": false,
      "alternateReality": false
    },
    {
      "uid": "CHMA0000145389",
      "name": "I. Edzhuayan",
      "gender": null,
      "yearOfBirth": null,
      "monthOfBirth": null,
      "dayOfBirth": null,
      "placeOfBirth": null,
      "yearOfDeath": null,
      "monthOfDeath": null,
      "dayOfDeath": null,
      "placeOfDeath": null,
      "height": null,
      "weight": null,
      "deceased": null,
      "bloodType": null,
      "maritalStatus": null,
      "serialNumber": null,
      "hologramActivationDate": null,
      "hologramStatus": null,
      "hologramDateStatus": null,
      "hologram": false,
      "fictionalCharacter": false,
      "mirror": false,
      "alternateReality": false
    },
    {
      "uid": "CHMA0000005581",
      "name": "Edward Jellico",
      "gender": "M",
      "yearOfBirth": 2311,
      "monthOfBirth": null,
      "dayOfBirth": null,
      "placeOfBirth": null,
      "yearOfDeath": null,
      "monthOfDeath": null,
      "dayOfDeath": null,
      "placeOfDeath": null,
      "height": null,
      "weight": null,
      "deceased": null,
      "bloodType": null,
      "maritalStatus": "MARRIED",
      "serialNumber": null,
      "hologramActivationDate": null,
      "hologramStatus": null,
      "hologramDateStatus": null,
      "hologram": false,
      "fictionalCharacter": false,
      "mirror": false,
      "alternateReality": false
    }
  ]
}
